<svg width="24" height="24" viewBox="0 0 24 24" fill="none" xmlns="http://www.w3.org/2000/svg">
<path d="M22.4038 2.28195C22.4038 3.54254 21.2813 4.56353 19.8956 4.56353C18.5089 4.56353 17.385 3.54223 17.385 2.28195C17.385 1.02167 18.5093 0 19.8956 0C21.2813 0 22.4038 1.02185 22.4038 2.28195Z" fill="#434343"/>
<path d="M20.9133 4.94336L19.8932 5.39773L18.874 4.94336V6.28598L19.8932 5.83161L20.9133 6.28598V4.94336Z" fill="#434343"/>
<path d="M23.2736 5.61433H21.8154L19.8935 9.36187L17.9726 5.61433H16.5144C16.1133 5.61433 15.7876 5.91071 15.7876 6.27479C15.7876 6.30713 15.7907 6.33929 15.7954 6.36987L15.8224 6.52999L17.1529 14.0271V24H19.5223V16.5625C19.5223 16.3763 19.6893 16.2245 19.8937 16.2245C20.0993 16.2245 20.2661 16.3763 20.2661 16.5625V24H22.6336L22.6338 14.0271L23.9777 6.45126L23.9925 6.36979C23.9973 6.33939 24.0003 6.30705 24.0003 6.27471C24.0005 5.91065 23.6749 5.61426 23.2736 5.61426L23.2736 5.61433Z" fill="#434343"/>
<path d="M7.72902 8.04761C6.18963 8.04761 5.64155 8.25332 5.4707 8.7015C6.27411 8.79304 6.97825 9.08429 7.52473 9.56129C7.62774 9.65089 7.72433 9.7488 7.81548 9.85607C7.90682 9.7488 8.00302 9.65142 8.10642 9.56129C8.61384 9.11823 9.26042 8.83528 9.99547 8.72376C9.83455 8.26056 9.29445 8.04761 7.72899 8.04761H7.72902Z" fill="#434343"/>
<path d="M10.9345 19.6119C10.1717 20.5182 8.99668 21.0511 7.72913 21.0511C6.46179 21.0511 5.28698 20.5179 4.52518 19.6119C3.33947 20.1467 2.09994 20.3099 1.03609 20.0858C0.732322 21.2974 0.551581 22.6008 0.515625 23.9512H14.9433C14.9078 22.6013 14.7261 21.2985 14.4229 20.0877C13.3547 20.3148 12.1203 20.1481 10.9346 19.6119H10.9345Z" fill="#434343"/>
<path d="M0.995537 15.8664C1.44253 16.1623 1.8973 16.4318 2.34622 16.6679C1.89028 17.5006 1.50819 18.4355 1.21106 19.4441C2.18377 19.6474 3.35141 19.4568 4.46189 18.8938C4.62883 18.8088 4.84145 18.8572 4.94445 19.0041C5.55839 19.8711 6.59951 20.3886 7.72944 20.3886C8.85977 20.3886 9.90163 19.8711 10.5144 19.0041C10.6178 18.8568 10.8304 18.8084 10.9984 18.8938C12.1106 19.4579 13.2709 19.6506 14.2492 19.4447C13.952 18.4357 13.5688 17.5006 13.1128 16.6679C13.5618 16.4318 14.0167 16.1623 14.4645 15.8659C16.7438 14.3607 14.71 11.6714 12.3524 8.55512C11.5787 7.53273 10.785 6.48102 10.0999 5.4189C10.117 5.3141 10.1287 5.20771 10.1287 5.0985C10.1287 3.89427 9.05513 2.91785 7.73008 2.91785C6.40641 2.91785 5.3328 3.89409 5.3328 5.0985C5.3328 5.20736 5.34466 5.3141 5.36157 5.4189C4.67438 6.48138 3.88083 7.53363 3.10599 8.55725C0.750309 11.6716 -1.28467 14.361 0.995588 15.8662L0.995537 15.8664ZM9.21215 12.9672C9.06601 12.9165 8.95095 12.8113 8.89537 12.6779C8.84056 12.5444 8.85164 12.3963 8.92413 12.2705C9.5033 11.2785 9.95321 10.1017 10.0405 9.38734C9.48116 9.48454 8.99354 9.70581 8.6103 10.0396C8.43383 10.1941 8.27777 10.3839 8.13473 10.6202C8.07001 10.7261 7.94874 10.7913 7.81581 10.7913C7.68366 10.7913 7.5616 10.7259 7.49728 10.6207C7.35308 10.3834 7.19701 10.1938 7.02152 10.0402C6.59843 9.67064 6.04786 9.4423 5.41641 9.36403C5.4959 10.0754 5.94891 11.2679 6.5337 12.2707C6.60716 12.3965 6.61785 12.5455 6.56343 12.6784C6.50766 12.8118 6.3926 12.9172 6.24665 12.9675C4.96279 13.4132 3.8146 14.4081 2.88876 15.7775C2.47985 15.561 2.06336 15.3145 1.6533 15.0433C0.256751 14.1208 2.0041 11.8104 4.02799 9.13511C4.66855 8.28754 5.32409 7.4196 5.92808 6.53507C6.36711 6.99048 7.0106 7.27999 7.72947 7.27999C8.44854 7.27999 9.09224 6.99068 9.53126 6.53507C10.1349 7.41979 10.7902 8.28767 11.4312 9.13511C13.4555 11.8103 15.2036 14.1209 13.8071 15.0433C13.396 15.3141 12.9805 15.5608 12.5706 15.7775C11.6448 14.4077 10.4975 13.4128 9.21214 12.9672L9.21215 12.9672Z" fill="#434343"/>
</svg>
